faction id, cn, de, en, es, fr, it, jp, kr, pt, ru, tw
1, 玩家, Spieler, Player, Jugador, Joueur, Giocatore, プレイヤー, 플레이어, Jogador, Игрок, 玩家, 
2, Argon联邦, Argonische Föderation, Argon Federation, Federación Argon, Fédération Argonne, Federazione Argon, アルゴン連邦, 아르곤 연방, Federação de Argon, Аргонская Федерация, Argon聯邦, 
3, 安提戈涅共和国, Republik Antigone, Antigone Republic, República de Antigone, République d'Antigone, Repubblica di Antigone, アンティゴネ共和国, 안티고네 공화국, República Antigone, Республика Антигона, 安提戈涅共和國, 
4, Paranid神界, Gottesreich von Paranid, Godrealm of the Paranid, Reino Divino de los Paranid, Royaume Divin des Paranides, Reame Divino dei Paranid, パラニド神聖帝国, 파라니드 갓렐름, Reino Divino de Paranid, Святое Царство Паранидов, Paranid神界, 
5, 教皇圣教团, Heiliger Orden des Pontifex, Holy Order of the Pontifex, Santa Orden del Pontífice, Saint Ordre du Pontifex, Sacro Ordine del Pontefice, 教皇の聖騎士団, 폰티펙스 홀리 오더, Ordem Sagrada do Pontifex, Священный Орден Понтифика, 教皇聖教團, 
6, Teladi公司, Teladi-Unternehmen, Teladi Company, Compañía Teladi, Compagnie Teladi, Compagnia Teladi, テラディカンパニー, 텔라디 컴퍼니, Companhia Teladi, Компания Телади, Teladi公司, 
7, 财政部, Teladi-Finanzministerium, Ministry of Finance, Ministerio de Finanzas, Ministère des Finances, Ministero della Finanza, 財務省, 재무부, Ministério Financeiro, Министерство финансов, 財政部, 
8, 约言联盟, Bündnis der Worte, Alliance of the Word, Alianza de la Palabra, Alliance de la Parole, Alleanza della Parola, 言伝同盟, 말씀의 동맹, Aliança da Palavra, Альянс Слова, 約言聯盟, 
9, 希望之歌自由联盟, Freie Liga von Hatikvah, Hatikvah Free League, Liga Libre de Hatikvah, Ligue Libre d'Hatikvah, Lega Libera di Hatikvah, ハティクヴァ自由連合, 하티크바 자유 연맹, Liga Livre Hatikvah, Свободная Лига Хатиква, 希望之歌自由聯盟, 
10, 鳞片公约组织, Pakt von Grüne Schuppe, Scale Plate Pact, Pacto de la Coraza de Escamas, Pacte de la Pellicule Verte, Patto della Corazza, 緑鱗協定, 스케일 플레이트 팩트, Pacto de Scale Plate, Пакт Чешуйки, 鱗片公約組織, 
11, Xenon, Xenon, Xenon, Xenon, Xénon, Xenon, ゼノン, 제논, Xenon, Ксенон, Xenon, 
12, 地球人托管, Terranisches Mandat, Terran Mandate, Mandato Terran, Mandat Terrien, Ordine Terrestre, テラン委任統治会, 테란 통치국, Mandato Terrestre, Мандат Земли, 地球人托管, 
13, Boron女王国, Königinnenreich von Boron, Queendom of Boron, El Reinado Boron, Royaume des Borons, Regno dei Boron, ボロン女王領, 보론 여왕국, Império da Rainha Boron, Королевство Борон, Boron女王國, 
14, 扎亚斯家族, Familie Zyarth, Family Zyarth, Familia Zyarth, Famille Zyarth, Famiglia Zyarth, ジアルス族, 자야드 패밀리, Família Zyrath, Семья Зьярт, 扎亞斯家族, 
15, Kha'ak, Kha'ak, Kha'ak, Kha'ak, Kha'ak, Kha'ak, カハーク, 카악, Kha'ak, Хааки, Kha'ak, 
16, 自由部族联盟, Freie Familien, Free Families, Familias Libres, Familles Libres, Famiglie Libere, 自由部族, Free Families, Famílias Livres, Свободные Семьи, 自由部族聯盟, 
17, 陨落部族联盟, Gefallene Familien, Fallen Families, Familias Caídas, Familles Déchues, Famiglie Decadute, 追放された部族, Fallen Families, Famílias Caídas, Падшие Семьи, 隕落部族聯盟, 
18, 抑制者的王庭, Rat der Züglerinnen, Court of Curbs, Tribunal de Curbs, Cour des Limites, Corte delle Briglie, 抑締の輪の法廷, Court of Curbs, Court de Curbs, Палата Сбруек, 抑制者的王庭, 
19, 抑制者集团, Kabale der Züglerinnen, Cabal of Curbs, Camarilla de Curbs, Complot des Limites, Cabala delle Briglie, 抑締の輪, Cabal of Curbs, Cabala de Curbs, Ложа Сбруек, 抑制者集團, 
20, 扎亚斯氏族, Patriarchat Zyarth, Zyarth Patriarchy, Patriarcado de Zyarth, Patriarcat de Zyarth, Patriarcato Zyarth, ジアルスの族長, 자야드 부족, Patriarcado Zyarth, Патриархат Зьярт, 扎亞斯氏族, 
21, 纽特氏族, Patriarchat Nhuut, Nhuut Patriarchy, Patriarcado de Nhuut, Patriarcat de Nhuut, Patriarcato Nhuut, ニュートの族長, Nhuut Patriarchy, Patriarcado Nhuut, Патриархат Нуут, 紐特氏族, 
22, 莱克氏族, Patriarchat Rhak, Rhak Patriarchy, Patriarcado de Rhak, Patriarcat de Rhak, Patriarcato Rhak, ラークの族長, Rhak Patriarchy, Patriarcado Rhak, Патриархат Рак, 萊克氏族, 
23, 三位一体国度, Reich der Dreieinigkeit, Realm of the Trinity, Reino de la Trinidad, Domaine de la Trinité, Reame della Trinità, 聖三位の帝国, Realm of the Trinity, Reino da Trindade, Царство Троицы, 三位一體國度, 
24, 公爵的海盗, Korsaren des Herzogs, Duke's Buccaneers, Piratas del Duque, Les Boucaniers du Duc, Bucanieri del Duca, 大公の海賊団, Duke's Buccaneers, Os Bucaneiros do Duke, Буканьеры Герцога, 公爵的海盜, 
25, 公爵的愤怒, Sturm des Herzogs, Duke's Tempest, Tempestad del Duque, La Tempête du Duc, Tempesta del Duca, 大公の天嵐騎士団, Duke's Tempest, Tempestade de Duke, Орда Герцога, 公爵的憤怒, 
26, 圣教团信徒, Getreue des Heiligen Ordens, Holy Order Faithful, Orden Sagrada Leal, Fildèle du Saint-Ordre, Fedeli del Sacro Ordine, 忠実なる聖騎士団, Holy Order Faithful, Fiel da Ordem Sagrada, Апологеты Священного Ордена, 聖教團信徒, 
